Multiplexer/multiplexer.vcd
$date
  Fri May 05 14:13:36 2023
$end
$version
  GHDL v0
$end
$timescale
  1 fs
$end
$var reg 1 ! i1 $end
$var reg 1 " i3 $end
$var reg 1 # i5 $end
$var reg 1 $ i7 $end
$var reg 1 % i2 $end
$var reg 1 & i4 $end
$var reg 1 ' i6 $end
$var reg 1 ( i8 $end
$var reg 1 ) s1 $end
$var reg 1 * s2 $end
$var reg 1 + s3 $end
$var reg 1 , y $end
$scope module uut $end
$var reg 1 - i1 $end
$var reg 1 . i2 $end
$var reg 1 / i3 $end
$var reg 1 0 i4 $end
$var reg 1 1 i5 $end
$var reg 1 2 i6 $end
$var reg 1 3 i7 $end
$var reg 1 4 i8 $end
$var reg 1 5 s1 $end
$var reg 1 6 s2 $end
$var reg 1 7 s3 $end
$var reg 1 8 y $end
$upscope $end
$enddefinitions $end
#0
0!
0"
0#
0$
1%
1&
1'
1(
0)
0*
0+
0,
0-
1.
0/
10
01
12
03
14
05
06
07
08
#10000000
1+
1,
17
18
#20000000
1*
0+
0,
16
07
08
#30000000
1+
1,
17
18
#40000000
1)
0*
0+
0,
15
06
07
08
#50000000
1+
1,
17
18
#60000000
1*
0+
0,
16
07
08
#70000000
1+
1,
17
18
