decoder/decoder.vcd
$date
  Sat Apr 08 13:01:05 2023
$end
$version
  GHDL v0
$end
$timescale
  1 fs
$end
$var reg 1 ! a $end
$var reg 1 " b $end
$var reg 1 # c $end
$var reg 1 $ o0 $end
$var reg 1 % o1 $end
$var reg 1 & o2 $end
$var reg 1 ' o3 $end
$var reg 1 ( o4 $end
$var reg 1 ) o5 $end
$var reg 1 * o6 $end
$var reg 1 + o7 $end
$scope module uut $end
$var reg 1 , a $end
$var reg 1 - b $end
$var reg 1 . c $end
$var reg 1 / o0 $end
$var reg 1 0 o1 $end
$var reg 1 1 o2 $end
$var reg 1 2 o3 $end
$var reg 1 3 o4 $end
$var reg 1 4 o5 $end
$var reg 1 5 o6 $end
$var reg 1 6 o7 $end
$upscope $end
$enddefinitions $end
#0
0!
0"
0#
1$
0%
0&
0'
0(
0)
0*
0+
0,
0-
0.
1/
00
01
02
03
04
05
06
#1000000
1#
0$
1%
1.
0/
10
#2000000
1"
0#
0%
1&
1-
0.
00
11
#3000000
1#
0&
1'
1.
01
12
#4000000
1!
0"
0#
0'
1(
1,
0-
0.
02
13
#5000000
1#
0(
1)
1.
03
14
#6000000
1"
0#
0)
1*
1-
0.
04
15
#7000000
1#
0*
1+
1.
05
16
